…
    ## -- Column specification --------------------------------------------------------
    ## Delimiter: ","
    ## dbl  (8): prez_gop, gov_gop, sen_gop, rep_gop, prez_dem, gov_dem, sen_dem, r...
    ## date (1): mon

    ## 
    ## i Use `spec()` to retrieve the full column specification for this data.
    ## i Specify the column types or set `show_col_types = FALSE` to quiet this message.

``` r
pols_month_data
```

    ## # A tibble: 822 x 11
    ##     year month       day prez_gop gov_gop sen_gop rep_gop prez_dem gov_dem sen_dem
    ##    <int> <chr>     <int>    <dbl>   <dbl>   <dbl>   <dbl>    <dbl>   <dbl>   <dbl>
    ##  1  1947 January      15        0      23      51     253        1      23      45
    ##  2  1947 February     15        0      23      51     253        1      23      45
    ##  3  1947 March        15        0      23      51     253        1      23      45
    ##  4  1947 April        15        0      23      51     253        1      23      45
    ##  5  1947 May          15        0      23      51     253        1      23      45
    ##  6  1947 June         15        0      23      51     253        1      23      45
    ##  7  1947 July         15        0      23      51     253        1      23      45
    ##  8  1947 August       15        0      23      51     253        1      23      45
    ##  9  1947 September    15        0      23      51     253        1      23      45
    ## 10  1947 October      15        0      23      51     253        1      23      45
    ## # ... with 812 more rows, and 1 more variable: rep_dem <dbl>
